127.0.0.1 - - [09/Jul/2019:15:16:35 +0530] "GET / HTTP/1.1" 404 1074
0:0:0:0:0:0:0:1 - - [09/Jul/2019:15:16:36 +0530] "GET /Demo/Test.jsp HTTP/1.1" 200 185
0:0:0:0:0:0:0:1 - - [09/Jul/2019:15:16:36 +0530] "GET /favicon.ico HTTP/1.1" 404 1085
127.0.0.1 - - [09/Jul/2019:15:17:49 +0530] "GET / HTTP/1.1" 404 1074
0:0:0:0:0:0:0:1 - - [09/Jul/2019:15:18:07 +0530] "GET /Demo/Test.jsp HTTP/1.1" 200 185
0:0:0:0:0:0:0:1 - - [09/Jul/2019:15:18:07 +0530] "GET /favicon.ico HTTP/1.1" 404 1085
127.0.0.1 - - [09/Jul/2019:15:18:16 +0530] "GET / HTTP/1.1" 404 1074
0:0:0:0:0:0:0:1 - - [09/Jul/2019:15:18:16 +0530] "GET /Demo/Test.jsp HTTP/1.1" 200 185
127.0.0.1 - - [09/Jul/2019:15:23:56 +0530] "GET / HTTP/1.1" 404 1074
0:0:0:0:0:0:0:1 - - [09/Jul/2019:15:23:56 +0530] "GET /Demo/TestServlet HTTP/1.1" 200 57
127.0.0.1 - - [09/Jul/2019:15:51:05 +0530] "GET / HTTP/1.1" 404 1074
0:0:0:0:0:0:0:1 - - [09/Jul/2019:15:51:06 +0530] "GET /Demo/TestServlet HTTP/1.1" 200 303
127.0.0.1 - - [09/Jul/2019:15:51:52 +0530] "GET / HTTP/1.1" 404 1074
0:0:0:0:0:0:0:1 - - [09/Jul/2019:15:51:52 +0530] "GET /Demo/TestServlet HTTP/1.1" 200 303
127.0.0.1 - - [09/Jul/2019:15:52:49 +0530] "GET / HTTP/1.1" 404 1074
0:0:0:0:0:0:0:1 - - [09/Jul/2019:15:52:50 +0530] "GET /Demo/TestServlet HTTP/1.1" 200 314
0:0:0:0:0:0:0:1 - - [09/Jul/2019:15:53:05 +0530] "POST /Demo/TestServlet HTTP/1.1" 200 318
127.0.0.1 - - [09/Jul/2019:15:58:25 +0530] "GET / HTTP/1.1" 404 1074
0:0:0:0:0:0:0:1 - - [09/Jul/2019:15:58:26 +0530] "GET /Demo/TestServlet HTTP/1.1" 200 536
127.0.0.1 - - [09/Jul/2019:15:59:50 +0530] "GET / HTTP/1.1" 404 1074
0:0:0:0:0:0:0:1 - - [09/Jul/2019:15:59:50 +0530] "GET /Demo/TestServlet HTTP/1.1" 200 512
0:0:0:0:0:0:0:1 - - [09/Jul/2019:16:00:00 +0530] "POST /Demo/TestServlet HTTP/1.1" 200 514
0:0:0:0:0:0:0:1 - - [09/Jul/2019:16:00:03 +0530] "POST /Demo/TestServlet HTTP/1.1" 200 514
0:0:0:0:0:0:0:1 - - [09/Jul/2019:16:00:08 +0530] "POST /Demo/TestServlet HTTP/1.1" 200 514
0:0:0:0:0:0:0:1 - - [09/Jul/2019:16:00:10 +0530] "POST /Demo/TestServlet HTTP/1.1" 200 513
0:0:0:0:0:0:0:1 - - [09/Jul/2019:17:02:59 +0530] "GET /Demo/TestServlet HTTP/1.1" 200 512
0:0:0:0:0:0:0:1 - - [09/Jul/2019:17:03:09 +0530] "POST /Demo/TestServlet HTTP/1.1" 200 514
0:0:0:0:0:0:0:1 - - [09/Jul/2019:17:03:11 +0530] "POST /Demo/TestServlet HTTP/1.1" 200 513
0:0:0:0:0:0:0:1 - - [09/Jul/2019:17:03:13 +0530] "POST /Demo/TestServlet HTTP/1.1" 200 514
0:0:0:0:0:0:0:1 - - [09/Jul/2019:17:03:14 +0530] "POST /Demo/TestServlet HTTP/1.1" 200 513
